{
  "dataPrivate": true,
  "@id": "cvfpxhvhclk_",
  "@type": "Cycle",
  "site": {
    "@id": "uez-masc8vkf",
    "@type": "Site"
  },
  "defaultSource": {
    "@id": "j2pgyqxlpn1n",
    "@type": "Source"
  },
  "functionalUnit": "relative",
  "endDate": "2008",
  "dataCompleteness": {
    "electricityFuel": true,
    "material": false,
    "fertiliser": true,
    "other": true,
    "pesticidesAntibiotics": true,
    "soilAmendments": true,
    "water": true,
    "products": true,
    "cropResidue": true,
    "excretaManagement": true,
    "animalFeed": true,
    "@type": "Completeness"
  },
  "inputs": [
    {
      "term": {
        "@type": "Term",
        "termType": "crop",
        "name": "Barley, grain",
        "units": "kg",
        "@id": "barleyGrainInHusk"
      },
      "value": [
        157
      ],
      "impactAssessment": {
        "@id": "focscbe4ymd1",
        "@type": "ImpactAssessment"
      },
      "@type": "Input"
    },
    {
      "term": {
        "@type": "Term",
        "termType": "crop",
        "name": "Maize, grain",
        "units": "kg",
        "@id": "maizeGrain"
      },
      "value": [
        0
      ],
      "impactAssessment": {
        "@id": "0150ia9tcblf",
        "@type": "ImpactAssessment"
      },
      "@type": "Input"
    },
    {
      "term": {
        "@type": "Term",
        "termType": "crop",
        "name": "Sorghum, grain",
        "units": "kg",
        "@id": "sorghumGrain"
      },
      "value": [
        414
      ],
      "impactAssessment": {
        "@id": "5rhhdut9e4e4",
        "@type": "ImpactAssessment"
      },
      "@type": "Input"
    },
    {
      "term": {
        "@type": "Term",
        "termType": "crop",
        "name": "Wheat, grain",
        "units": "kg",
        "@id": "wheatGrain"
      },
      "value": [
        205
      ],
      "impactAssessment": {
        "@id": "igu65vfh42yf",
        "@type": "ImpactAssessment"
      },
      "@type": "Input"
    },
    {
      "term": {
        "@type": "Term",
        "termType": "crop",
        "name": "Soybean, meal",
        "units": "kg",
        "@id": "soybeanMeal"
      },
      "value": [
        188
      ],
      "impactAssessment": {
        "@id": "kzzti9qfijfz",
        "@type": "ImpactAssessment"
      },
      "@type": "Input"
    },
    {
      "term": {
        "@type": "Term",
        "name": "Tallow",
        "termType": "animalProduct",
        "@id": "tallow",
        "units": "kg"
      },
      "value": [
        7
      ],
      "@type": "Input"
    },
    {
      "term": {
        "@type": "Term",
        "name": "Trolnitrate",
        "termType": "pesticideAI",
        "@id": "CAS-1302-78-9",
        "units": "kg active ingredient"
      },
      "value": [
        16
      ],
      "@type": "Input"
    },
    {
      "term": {
        "@type": "Term",
        "name": "Lime",
        "termType": "soilAmendment",
        "@id": "lime",
        "units": "kg CaCO3"
      },
      "value": [
        4
      ],
      "@type": "Input"
    },
    {
      "term": {
        "@type": "Term",
        "name": "L-Lysine, Hydrochloride",
        "termType": "pesticideAI",
        "@id": "CAS-657-27-2",
        "units": "kg active ingredient"
      },
      "value": [
        3
      ],
      "@type": "Input"
    },
    {
      "term": {
        "@type": "Term",
        "name": "Methionine",
        "termType": "other",
        "@id": "CAS-59-51-8",
        "units": "kg"
      },
      "value": [
        1
      ],
      "@type": "Input"
    },
    {
      "term": {
        "@type": "Term",
        "name": "Threonine",
        "termType": "pesticideAI",
        "@id": "CAS-72-19-5",
        "units": "kg active ingredient"
      },
      "value": [
        0.2
      ],
      "@type": "Input"
    },
    {
      "term": {
        "@type": "Term",
        "name": "Additives, unspecified",
        "termType": "other",
        "@id": "additivesUnspecified",
        "units": "kg"
      },
      "value": [
        5
      ],
      "@type": "Input"
    },
    {
      "term": {
        "@type": "Term",
        "name": "Electricity, market mix",
        "termType": "electricity",
        "@id": "electricityMarketMix",
        "units": "kWh"
      },
      "value": [
        36.6
      ],
      "@type": "Input"
    },
    {
      "term": {
        "@type": "Term",
        "name": "Liquefied petroleum gases (LPG)",
        "termType": "fuel",
        "@id": "liquefiedPetroleumGasesLpg",
        "units": "kg"
      },
      "value": [
        0.0044
      ],
      "@type": "Input"
    },
    {
      "term": {
        "@type": "Term",
        "name": "Diesel",
        "termType": "fuel",
        "@id": "diesel",
        "units": "kg"
      },
      "value": [
        4.399
      ],
      "operation": {
        "@type": "Term",
        "name": "Transporting, machine unspecified",
        "termType": "operation",
        "@id": "transportingMachineUnspecified",
        "units": "hour"
      },
      "@type": "Input"
    },
    {
      "term": {
        "@type": "Term",
        "name": "Water, municipal tap",
        "termType": "water",
        "@id": "waterMunicipalTap",
        "units": "m3"
      },
      "value": [
        0.121
      ],
      "@type": "Input"
    },
    {
      "term": {
        "@type": "Term",
        "name": "Water, pumped groundwater",
        "termType": "water",
        "@id": "waterPumpedGroundwater",
        "units": "m3"
      },
      "value": [
        0
      ],
      "@type": "Input"
    }
  ],
  "products": [
    {
      "term": {
        "@type": "Term",
        "name": "Concentrate feed blend",
        "termType": "crop",
        "@id": "concentrateFeedBlend",
        "units": "kg"
      },
      "value": [
        1000
      ],
      "primary": true,
      "@type": "Product"
    }
  ],
  "cycleDuration": 365,
  "name": "Concentrate feed blend - Australia - 2008",
  "schemaVersion": "9.7.1",
  "originalId": "n_feedpig",
  "@context": "https://www-staging.hestia.earth/schema/Cycle.jsonld"
}
