{
  "@context": "https://www-staging.hestia.earth/schema/ImpactAssessment.jsonld",
  "createdAt": "2023-06-29",
  "@id": "0svpe5krkfat",
  "@type": "ImpactAssessment",
  "cycle": {
    "@id": "l-lrnxwx8rkm",
    "@type": "Cycle"
  },
  "site": {
    "@id": "h5uqpqz_38q6",
    "@type": "Site"
  },
  "country": {
    "@type": "Term",
    "termType": "region",
    "name": "Iran",
    "@id": "GADM-IRN"
  },
  "product": {
    "term": {
      "@type": "Term",
      "termType": "crop",
      "name": "Coriander, seed",
      "units": "kg",
      "@id": "corianderSeed"
    },
    "@type": "Product"
  },
  "source": {
    "@id": "wt1acnuxfnsn",
    "@type": "Source"
  },
  "functionalUnitQuantity": 1,
  "allocationMethod": "none required",
  "endDate": "2020",
  "impacts": [
    {
      "term": {
        "@type": "Term",
        "name": "GWP100",
        "termType": "characterisedIndicator",
        "@id": "gwp100",
        "units": "kg CO2 eq"
      },
      "value": 0.509875,
      "methodModel": {
        "@type": "Term",
        "name": "CML2001 Baseline",
        "termType": "model",
        "@id": "cml2001Baseline"
      },
      "@type": "Indicator"
    },
    {
      "term": {
        "@type": "Term",
        "name": "Photochemical ozone creation potential (ethene eq)",
        "termType": "characterisedIndicator",
        "@id": "photochemicalOzoneCreationPotentialEtheneEq",
        "units": "kg ethene eq"
      },
      "value": 0.00007386363636,
      "methodModel": {
        "@type": "Term",
        "name": "CML2001 Baseline",
        "termType": "model",
        "@id": "cml2001Baseline"
      },
      "@type": "Indicator"
    },
    {
      "term": {
        "@type": "Term",
        "name": "Terrestrial acidification potential, including fate, average Europe",
        "termType": "characterisedIndicator",
        "@id": "terrestrialAcidificationPotentialIncludingFateAverageEurope",
        "units": "kg SO2 eq"
      },
      "value": 0.05825568182,
      "methodModel": {
        "@type": "Term",
        "name": "CML2001 Baseline",
        "termType": "model",
        "@id": "cml2001Baseline"
      },
      "@type": "Indicator"
    },
    {
      "term": {
        "@type": "Term",
        "name": "Eutrophication potential, excluding fate",
        "termType": "characterisedIndicator",
        "@id": "eutrophicationPotentialExcludingFate",
        "units": "kg PO43 eq"
      },
      "value": 0.02291477273,
      "methodModel": {
        "@type": "Term",
        "name": "CML2001 Baseline",
        "termType": "model",
        "@id": "cml2001Baseline"
      },
      "@type": "Indicator"
    }
  ],
  "organic": false,
  "irrigated": false,
  "autoGenerated": false,
  "name": "Coriander, seed - Iran - 2020",
  "schemaVersion": "21.4.0",
  "originalId": "1"
}