<svg xmlns="http://www.w3.org/2000/svg" width="21" height="16" viewBox="0 0 21 16" fill="none">
  <path
    d="M15.75 5.33325C17.1997 5.33325 18.375 4.43782 18.375 3.33325C18.375 2.22868 17.1997 1.33325 15.75 1.33325C14.3003 1.33325 13.125 2.22868 13.125 3.33325C13.125 4.43782 14.3003 5.33325 15.75 5.33325Z"
    stroke="currentColor" stroke-width="1.5" stroke-linecap="round" stroke-linejoin="round"/>
  <path
    d="M5.25 10C6.69975 10 7.875 9.10457 7.875 8C7.875 6.89543 6.69975 6 5.25 6C3.80025 6 2.625 6.89543 2.625 8C2.625 9.10457 3.80025 10 5.25 10Z"
    stroke="currentColor" stroke-width="1.5" stroke-linecap="round" stroke-linejoin="round"/>
  <path
    d="M15.75 14.6667C17.1997 14.6667 18.375 13.7713 18.375 12.6667C18.375 11.5622 17.1997 10.6667 15.75 10.6667C14.3003 10.6667 13.125 11.5622 13.125 12.6667C13.125 13.7713 14.3003 14.6667 15.75 14.6667Z"
    stroke="currentColor" stroke-width="1.5" stroke-linecap="round" stroke-linejoin="round"/>
  <path d="M7.5166 9.00659L13.4929 11.6599" stroke="currentColor" stroke-width="1.5" stroke-linecap="round"
        stroke-linejoin="round"/>
  <path d="M13.4841 4.34009L7.5166 6.99342" stroke="currentColor" stroke-width="1.5" stroke-linecap="round"
        stroke-linejoin="round"/>
</svg>
