<svg xmlns="http://www.w3.org/2000/svg" width="24" height="25" viewBox="0 0 24 25" fill="none">
  <path
    d="M21 15.1191V19.151C21 19.6856 20.7893 20.1984 20.4142 20.5764C20.0391 20.9545 19.5304 21.1669 19 21.1669H5C4.46957 21.1669 3.96086 20.9545 3.58579 20.5764C3.21071 20.1984 3 19.6856 3 19.151V15.1191"
    stroke="currentColor" stroke-width="1.5" stroke-linecap="round" stroke-linejoin="round"/>
  <path d="M7 10.0796L12 15.1194L17 10.0796" stroke="currentColor" stroke-width="1.5" stroke-linecap="round"
        stroke-linejoin="round"/>
  <path d="M12 15.1194V3.02393" stroke="currentColor" stroke-width="1.5" stroke-linecap="round"
        stroke-linejoin="round"/>
</svg>
