<svg width="16" height="16" viewBox="0 0 16 16" fill="none" xmlns="http://www.w3.org/2000/svg">
  <path fill-rule="evenodd" clip-rule="evenodd"
        d="M3.37119 9.0065C4.96023 10.532 7.48558 10.4829 9.01184 8.90327C10.5381 7.32368 10.4925 4.8064 8.9035 3.28091C7.31447 1.75541 4.78911 1.80454 3.26285 3.38413C1.73658 4.96373 1.78216 7.481 3.37119 9.0065ZM9.35253 11.1868C7.07254 12.6332 4.01421 12.3972 1.981 10.4453C-0.40309 8.1565 -0.474916 4.37521 1.82057 1.99952C4.11606 -0.376165 7.9096 -0.446629 10.2937 1.84214C12.4291 3.8922 12.7095 7.13968 11.0952 9.50198L14.8872 13.1424C15.3694 13.6053 15.3835 14.3706 14.9188 14.8516C14.454 15.3326 13.6863 15.3473 13.2041 14.8844L9.35253 11.1868Z"
        fill="currentColor"/>
</svg>
