<svg width="1em" height="1em" viewBox="0 0 24 25" fill="none" xmlns="http://www.w3.org/2000/svg">
  <path d="M6 15.5591L12 9.55908L18 15.5591" stroke="currentColor" stroke-width="1.5" stroke-linecap="round"
        stroke-linejoin="round"/>
</svg>
