<svg width="20" height="20" viewBox="0 0 20 20" fill="none" xmlns="http://www.w3.org/2000/svg">
<g clip-path="url(#clip0_551_21547)">
<path d="M8.37596 4.41603C8.51506 4.62467 8.74924 4.75 9 4.75H18C18.3315 4.75 18.6495 4.8817 18.8839 5.11612C19.1183 5.35054 19.25 5.66848 19.25 6V17C19.25 17.3315 19.1183 17.6495 18.8839 17.8839C18.6495 18.1183 18.3315 18.25 18 18.25H2C1.66848 18.25 1.35054 18.1183 1.11612 17.8839C0.881696 17.6495 0.75 17.3315 0.75 17V3C0.75 2.66848 0.881696 2.35054 1.11612 2.11612C1.35054 1.8817 1.66848 1.75 2 1.75H6.59861L8.37596 4.41603Z" stroke="currentColor" stroke-width="1.5" stroke-linecap="round" stroke-linejoin="round"/>
</g>
<defs>
<clipPath id="clip0_551_21547">
<rect width="20" height="20" fill="white"/>
</clipPath>
</defs>
</svg>
