<svg width="24" height="24" viewBox="0 0 24 24" fill="none" xmlns="http://www.w3.org/2000/svg">
<g id="Icon Search - Fields">
<path id="Magnifier" fill-rule="evenodd" clip-rule="evenodd" d="M7.37119 13.0065C8.96023 14.532 11.4856 14.4829 13.0118 12.9033C14.5381 11.3237 14.4925 8.8064 12.9035 7.28091C11.3145 5.75541 8.78911 5.80454 7.26285 7.38413C5.73658 8.96373 5.78216 11.481 7.37119 13.0065ZM13.3525 15.1868C11.0725 16.6332 8.01421 16.3972 5.981 14.4453C3.59691 12.1565 3.52508 8.37521 5.82057 5.99952C8.11606 3.62383 11.9096 3.55337 14.2937 5.84214C16.4291 7.8922 16.7095 11.1397 15.0952 13.502L18.8872 17.1424C19.3694 17.6053 19.3835 18.3706 18.9188 18.8516C18.454 19.3326 17.6863 19.3473 17.2041 18.8844L13.3525 15.1868Z" fill="currentColor"/>
</g>
</svg>
